<svg width="611.4640258789062px" height="122px" xmlns="http://www.w3.org/2000/svg" viewBox="-55.732012939453114 14 611.4640258789062 122" style="background: rgba(0, 0, 0, 0);" preserveAspectRatio="xMidYMid"><defs><filter id="editing-extrusion" x="-100%" y="-100%" width="300%" height="300%"><feFlood result="color1" flood-color="#444"></feFlood><feConvolveMatrix order="8,8" divisor="1" kernelMatrix="1 0 0 0 0 0 0 0 0 1 0 0 0 0 0 0 0 0 1 0 0 0 0 0 0 0 0 1 0 0 0 0 0 0 0 0 1 0 0 0 0 0 0 0 0 1 0 0 0 0 0 0 0 0 1 0 0 0 0 0 0 0 0 1" in="SourceAlpha" result="extrude"></feConvolveMatrix><feComposite in="color1" in2="extrude" result="comp-extrude" operator="in"></feComposite><feOffset dx="4" dy="4" in="comp-extrude" result="offset-extrude"></feOffset><feMerge><feMergeNode in="offset-extrude"></feMergeNode><feMergeNode in="SourceGraphic"></feMergeNode></feMerge></filter></defs><g filter="url(#editing-extrusion)"><g transform="translate(32.52382493019104, 98.68000030517578)"><path d="M14.21 0L0.51 0L8.32-42.05L8.32-42.05Q14.66-42.75 23.90-42.75L23.90-42.75L23.90-42.75Q33.15-42.75 37.44-40.06L37.44-40.06L37.44-40.06Q41.73-37.38 41.73-31.97L41.73-31.97L41.73-31.97Q41.73-26.56 38.94-23.17L38.94-23.17L38.94-23.17Q36.16-19.78 31.36-18.69L31.36-18.69L31.36-18.69Q32.45-13.38 34.94-9.09L34.94-9.09L34.94-9.09Q37.25-5.06 39.94-3.78L39.94-3.78L39.94-3.78Q38.98-1.09 37.02 0.10L37.02 0.10L37.02 0.10Q35.07 1.28 32.29 1.28L32.29 1.28L32.29 1.28Q29.50 1.28 27.33-0.35L27.33-0.35L27.33-0.35Q25.15-1.98 23.42-4.99L23.42-4.99L23.42-4.99Q19.78-11.52 19.39-21.82L19.39-21.82L19.84-21.82L19.84-21.82Q24.58-21.95 26.94-24.42L26.94-24.42L26.94-24.42Q29.31-26.88 29.31-32.06L29.31-32.06L29.31-32.06Q29.31-38.53 23.87-38.78L23.87-38.78L22.46-38.78L22.46-38.78Q21.89-38.78 21.57-38.72L21.57-38.72L14.21 0ZM47.46-1.92L47.46-1.92L47.46-1.92Q45.95-3.58 45.28-6.21L45.28-6.21L45.28-6.21Q44.61-8.83 44.61-13.12L44.61-13.12L44.61-13.12Q44.61-17.41 46.08-21.31L46.08-21.31L46.08-21.31Q47.55-25.22 50.24-28.03L50.24-28.03L50.24-28.03Q55.74-33.92 64.83-33.92L64.83-33.92L64.83-33.92Q68.10-33.92 70.46-32.83L70.46-32.83L81.41-33.92L76.67-8.96L76.67-8.96Q76.48-8.19 76.48-6.78L76.48-6.78L76.48-6.78Q76.48-5.38 77.34-4.48L77.34-4.48L77.34-4.48Q78.21-3.58 79.49-3.46L79.49-3.46L79.49-3.46Q78.85-1.28 76.51 0L76.51 0L76.51 0Q74.18 1.28 71.55 1.28L71.55 1.28L71.55 1.28Q68.93 1.28 67.17 0.29L67.17 0.29L67.17 0.29Q65.41-0.70 64.90-2.37L64.90-2.37L64.90-2.37Q63.87-0.77 61.70 0.26L61.70 0.26L61.70 0.26Q59.52 1.28 56.61 1.28L56.61 1.28L56.61 1.28Q53.70 1.28 51.33 0.51L51.33 0.51L51.33 0.51Q48.96-0.26 47.46-1.92ZM60.96-27.90L60.96-27.90L60.96-27.90Q60.22-26.75 59.58-24.80L59.58-24.80L59.58-24.80Q58.94-22.85 57.89-17.63L57.89-17.63L57.89-17.63Q56.83-12.42 56.83-8.70L56.83-8.70L56.83-8.70Q56.83-4.99 57.41-3.90L57.41-3.90L57.41-3.90Q57.98-2.82 59.01-2.82L59.01-2.82L59.01-2.82Q61.06-2.82 62.56-4.77L62.56-4.77L62.56-4.77Q64.06-6.72 64.64-10.18L64.64-10.18L68.03-28.93L68.03-28.93Q66.69-30.08 65.12-30.08L65.12-30.08L65.12-30.08Q63.55-30.08 62.62-29.57L62.62-29.57L62.62-29.57Q61.70-29.06 60.96-27.90ZM111.94 1.28L111.94 1.28L111.94 1.28Q104.19 1.28 104.19-4.74L104.19-4.74L104.19-4.74Q104.26-6.40 104.77-9.22L104.77-9.22L105.92-15.10L105.92-15.10Q107.65-23.42 107.65-25.28L107.65-25.28L107.65-25.28Q107.65-28.99 105.47-28.99L105.47-28.99L105.47-28.99Q101.82-28.99 99.90-19.46L99.90-19.46L96.13 0L83.26 1.28L89.92-32.70L100.42-33.92L99.39-27.65L99.39-27.65Q102.40-33.92 111.62-33.92L111.62-33.92L111.62-33.92Q116.10-33.92 117.98-32.03L117.98-32.03L117.98-32.03Q119.87-30.14 119.87-25.92L119.87-25.92L119.87-25.92Q119.87-21.95 117.82-12.67L117.82-12.67L117.82-12.67Q116.86-8.51 116.86-6.94L116.86-6.94L116.86-6.94Q116.86-5.38 117.73-4.48L117.73-4.48L117.73-4.48Q118.59-3.58 119.87-3.46L119.87-3.46L119.87-3.46Q119.23-1.28 117.02 0L117.02 0L117.02 0Q114.82 1.28 111.94 1.28ZM145.15-33.92L145.15-33.92L145.15-33.92Q147.46-33.92 149.25-33.41L149.25-33.41L149.25-33.41Q149.31-33.66 149.44-34.37L149.44-34.37L149.76-36.35L149.76-36.35Q150.02-37.63 150.40-39.74L150.40-39.74L151.42-44.80L164.16-46.08L157.06-8.96L157.06-8.96Q156.99-8.58 156.99-7.94L156.99-7.94L156.99-6.91L156.99-6.91Q156.99-5.50 157.70-4.45L157.70-4.45L157.70-4.45Q158.40-3.39 159.55-3.39L159.55-3.39L159.55-3.39Q158.27-0.38 154.37 0.90L154.37 0.90L154.37 0.90Q153.02 1.28 151.14 1.28L151.14 1.28L151.14 1.28Q149.25 1.28 147.52 0.29L147.52 0.29L147.52 0.29Q145.79-0.70 145.28-2.37L145.28-2.37L145.28-2.37Q144.26-0.70 142.21 0.29L142.21 0.29L142.21 0.29Q140.16 1.28 137.18 1.28L137.18 1.28L137.18 1.28Q134.21 1.28 131.74 0.51L131.74 0.51L131.74 0.51Q129.28-0.26 127.74-1.92L127.74-1.92L127.74-1.92Q124.93-5.18 124.93-12.61L124.93-12.61L124.93-12.61Q124.93-22.21 130.56-28.03L130.56-28.03L130.56-28.03Q136.19-33.92 145.15-33.92ZM144.70-30.08L144.70-30.08L144.70-30.08Q142.34-30.08 141.06-27.52L141.06-27.52L141.06-27.52Q139.78-24.96 138.46-18.62L138.46-18.62L138.46-18.62Q137.15-12.29 137.15-6.59L137.15-6.59L137.15-6.59Q137.15-2.69 139.46-2.69L139.46-2.69L139.46-2.69Q141.50-2.69 142.94-4.74L142.94-4.74L142.94-4.74Q144.38-6.78 144.96-10.18L144.96-10.18L148.42-28.93L148.42-28.93Q147.07-30.08 144.70-30.08ZM178.94 1.28L178.94 1.28L178.94 1.28Q164.86 1.28 164.86-11.97L164.86-11.97L164.86-11.97Q164.86-21.38 170.05-27.46L170.05-27.46L170.05-27.46Q175.55-33.92 185.09-33.92L185.09-33.92L185.09-33.92Q192-33.92 195.52-30.72L195.52-30.72L195.52-30.72Q199.04-27.52 199.04-20.80L199.04-20.80L199.04-20.80Q199.04-10.56 193.54-4.61L193.54-4.61L193.54-4.61Q188.16 1.28 178.94 1.28ZM180.61-26.56L180.61-26.56L180.61-26.56Q179.84-24.83 179.23-22.24L179.23-22.24L179.23-22.24Q178.62-19.65 177.86-15.55L177.86-15.55L177.86-15.55Q177.09-11.46 177.09-6.40L177.09-6.40L177.09-6.40Q177.09-4.74 177.63-3.65L177.63-3.65L177.63-3.65Q178.18-2.56 179.65-2.56L179.65-2.56L179.65-2.56Q181.12-2.56 182.05-3.26L182.05-3.26L182.05-3.26Q182.98-3.97 183.68-5.63L183.68-5.63L183.68-5.63Q184.96-8.58 185.98-14.05L185.98-14.05L185.98-14.05Q187.01-19.52 187.10-21.89L187.10-21.89L187.10-21.89Q187.20-24.26 187.20-26.02L187.20-26.02L187.20-26.02Q187.20-27.78 186.69-28.93L186.69-28.93L186.69-28.93Q186.18-30.08 184.74-30.08L184.74-30.08L184.74-30.08Q183.30-30.08 182.34-29.18L182.34-29.18L182.34-29.18Q181.38-28.29 180.61-26.56ZM248.90 1.28L248.90 1.28L248.90 1.28Q241.15 1.28 241.15-4.74L241.15-4.74L241.15-4.74Q241.15-7.36 242.27-12.45L242.27-12.45L242.27-12.45Q243.39-17.54 243.78-19.58L243.78-19.58L243.78-19.58Q244.67-24.26 244.67-25.73L244.67-25.73L244.67-25.73Q244.67-28.99 242.24-28.99L242.24-28.99L242.24-28.99Q240.64-28.99 239.10-26.78L239.10-26.78L239.10-26.78Q237.57-24.58 236.86-20.16L236.86-20.16L232.90 0L220.42 1.28L223.87-16.13L223.87-16.13Q224.45-19.01 224.96-22.27L224.96-22.27L224.96-22.27Q225.47-25.54 225.47-26.05L225.47-26.05L225.47-26.05Q225.47-28.99 223.30-28.99L223.30-28.99L223.30-28.99Q221.82-28.99 220.22-26.82L220.22-26.82L220.22-26.82Q218.62-24.64 217.73-20.16L217.73-20.16L213.82 0L201.22 1.28L207.94-32.64L218.37-33.92L217.28-27.46L217.28-27.46Q218.94-30.91 222.02-32.42L222.02-32.42L222.02-32.42Q225.09-33.92 229.89-33.92L229.89-33.92L229.89-33.92Q232.64-33.92 234.43-32.58L234.43-32.58L234.43-32.58Q236.22-31.23 236.80-29.06L236.80-29.06L236.80-29.06Q237.89-31.30 240.67-32.61L240.67-32.61L240.67-32.61Q243.46-33.92 246.88-33.92L246.88-33.92L246.88-33.92Q250.30-33.92 252-33.18L252-33.18L252-33.18Q253.70-32.45 254.72-31.23L254.72-31.23L254.72-31.23Q256.45-28.99 256.45-24.90L256.45-24.90L256.45-24.90Q256.45-20.86 254.72-12.48L254.72-12.48L254.72-12.48Q253.82-8.38 253.82-6.88L253.82-6.88L253.82-6.88Q253.82-5.38 254.69-4.48L254.69-4.48L254.69-4.48Q255.55-3.58 256.83-3.46L256.83-3.46L256.83-3.46Q256.19-1.28 253.98 0L253.98 0L253.98 0Q251.78 1.28 248.90 1.28ZM298.82-4.80L298.82-4.80L298.82-4.80Q298.82-9.28 300.61-18.24L300.61-18.24L291.14-18.24L287.62 0L274.24 0L282.37-42.24L295.87-42.24L292.16-23.36L301.63-23.36L305.15-42.24L318.66-42.24L318.66-42.24Q317.76-37.50 316.61-32.19L316.61-32.19L314.43-21.76L314.43-21.76Q312.00-9.60 312.00-4.29L312.00-4.29L312.00-4.29Q312.00-2.11 312.70-0.90L312.70-0.90L312.70-0.90Q309.50 1.28 305.76 1.28L305.76 1.28L305.76 1.28Q302.02 1.28 300.42-0.51L300.42-0.51L300.42-0.51Q298.82-2.30 298.82-4.80ZM334.14 1.28L334.14 1.28L334.14 1.28Q320.06 1.28 320.06-11.97L320.06-11.97L320.06-11.97Q320.06-21.38 325.25-27.46L325.25-27.46L325.25-27.46Q330.75-33.92 340.29-33.92L340.29-33.92L340.29-33.92Q347.20-33.92 350.72-30.72L350.72-30.72L350.72-30.72Q354.24-27.52 354.24-20.80L354.24-20.80L354.24-20.80Q354.24-10.56 348.74-4.61L348.74-4.61L348.74-4.61Q343.36 1.28 334.14 1.28ZM335.81-26.56L335.81-26.56L335.81-26.56Q335.04-24.83 334.43-22.24L334.43-22.24L334.43-22.24Q333.82-19.65 333.06-15.55L333.06-15.55L333.06-15.55Q332.29-11.46 332.29-6.40L332.29-6.40L332.29-6.40Q332.29-4.74 332.83-3.65L332.83-3.65L332.83-3.65Q333.38-2.56 334.85-2.56L334.85-2.56L334.85-2.56Q336.32-2.56 337.25-3.26L337.25-3.26L337.25-3.26Q338.18-3.97 338.88-5.63L338.88-5.63L338.88-5.63Q340.16-8.58 341.18-14.05L341.18-14.05L341.18-14.05Q342.21-19.52 342.30-21.89L342.30-21.89L342.30-21.89Q342.40-24.26 342.40-26.02L342.40-26.02L342.40-26.02Q342.40-27.78 341.89-28.93L341.89-28.93L341.89-28.93Q341.38-30.08 339.94-30.08L339.94-30.08L339.94-30.08Q338.50-30.08 337.54-29.18L337.54-29.18L337.54-29.18Q336.58-28.29 335.81-26.56ZM359.04-6.40L359.04-6.40L359.04-6.40Q359.04-8.13 359.94-12.48L359.94-12.48L363.33-29.76L359.55-29.76L359.81-31.68L359.81-31.68Q367.49-33.98 374.91-39.62L374.91-39.62L377.98-39.62L376.45-32.64L381.44-32.64L380.86-29.76L375.94-29.76L372.67-12.48L372.67-12.48Q371.84-8.51 371.84-7.17L371.84-7.17L371.84-7.17Q371.84-4.10 374.53-3.46L374.53-3.46L374.53-3.46Q373.89-1.28 371.58 0L371.58 0L371.58 0Q369.28 1.28 366.02 1.28L366.02 1.28L366.02 1.28Q362.75 1.28 360.90-0.77L360.90-0.77L360.90-0.77Q359.04-2.82 359.04-6.40ZM406.78-10.82L406.78-10.82L406.78-10.82Q408.38-9.73 408.38-7.33L408.38-7.33L408.38-7.33Q408.38-4.93 407.17-3.39L407.17-3.39L407.17-3.39Q405.95-1.86 403.97-0.83L403.97-0.83L403.97-0.83Q399.87 1.28 395.46 1.28L395.46 1.28L395.46 1.28Q391.04 1.28 388.45 0.32L388.45 0.32L388.45 0.32Q385.86-0.64 384.13-2.43L384.13-2.43L384.13-2.43Q380.74-5.82 380.74-12.03L380.74-12.03L380.74-12.03Q380.74-21.70 385.98-27.58L385.98-27.58L385.98-27.58Q391.62-33.92 401.41-33.92L401.41-33.92L401.41-33.92Q407.49-33.92 410.50-31.36L410.50-31.36L410.50-31.36Q412.74-29.44 412.74-26.30L412.74-26.30L412.74-26.30Q412.74-15.04 393.28-15.04L393.28-15.04L393.28-15.04Q393.02-13.38 393.02-11.97L393.02-11.97L393.02-11.97Q393.02-9.02 394.34-7.90L394.34-7.90L394.34-7.90Q395.65-6.78 398.08-6.78L398.08-6.78L398.08-6.78Q400.51-6.78 403.10-7.90L403.10-7.90L403.10-7.90Q405.70-9.02 406.78-10.82ZM393.73-17.79L393.73-17.79L393.73-17.79Q398.27-17.79 400.90-20.61L400.90-20.61L400.90-20.61Q403.52-23.30 403.52-27.58L403.52-27.58L403.52-27.58Q403.52-29.06 402.98-29.86L402.98-29.86L402.98-29.86Q402.43-30.66 401.34-30.66L401.34-30.66L401.34-30.66Q400.26-30.66 399.33-30.24L399.33-30.24L399.33-30.24Q398.40-29.82 397.44-28.42L397.44-28.42L397.44-28.42Q395.07-25.22 393.73-17.79ZM430.21-3.52L430.21-3.52L430.21-3.52Q428.22 1.28 421.89 1.28L421.89 1.28L421.89 1.28Q418.69 1.28 416.64-0.96L416.64-0.96L416.64-0.96Q414.98-2.82 414.98-4.93L414.98-4.93L414.98-4.93Q414.98-9.73 417.22-20.22L417.22-20.22L421.89-44.80L434.88-46.08L428.67-13.70L428.67-13.70Q427.58-8.96 427.58-7.30L427.58-7.30L427.58-7.30Q427.58-3.65 430.21-3.52Z" fill="#ccc"></path></g></g><style>text {
  font-size: 64px;
  font-family: Arial Black;
  dominant-baseline: central;
  text-anchor: middle;
}</style></svg>